attributeName,formatString,unit,numberType,definition,attributeDefinition,columnClasses,minimum,maximum
Date_retrieved,YYYY-MM-DD,NA,NA,NA,Date cups were recovered from field incubations,Date,NA,NA
Site,NA,NA,NA,NA,Location of field incubation,factor,NA,NA
Days_in_field,NA,nominalDay,natural,NA,Days of field incubation,numeric,13,50
Treatment,NA,NA,NA,NA,"Agar treatment used: Control- agar only, NO3- agar and sodium nitrate, PO4- agar and potasium phosphate monobasic, NO3+PO4- agar, sodium nitrate, and potasium phosphate monobasic. A cation study was done in 2015 and included sodium phosphate monobasic",factor,NA,NA
Extract,NA,NA,NA,NA,Either ethanol or methanol was used,factor,NA,NA
Extract_vol_ml,NA,milliliter,natural,NA,Volume of solvent (methanol) used in exctraction,numeric,15,200
ABS_750,NA,nanometer,real,NA,Background corrected absorbance measurement on spectrophotometer at wavelength 750 nm. Negative values were changed to zero,numeric,-0.009,0.038
ABS_666,NA,nanometer,real,NA,"Background corrected absorbance measurement on spectrophotometer at wavelength 666 nm, 665 nm was used for ethanol extractions",numeric,-0.002,0.876
ABS_480,NA,nanometer,real,NA,Background corrected absorbance measurement on spectrophotometer at wavelength 480 nm,numeric,-0.001,0.42
ABS_750a,NA,nanometer,real,NA,Background corrected absorbance measurement on spectrophotometer at wavelength 750 nm after acidification. Negative values were changed to zero,numeric,-0.007,0.11
ABS_666a,NA,nanometer,real,NA,"Background corrected absorbance measurement on spectrophotometer at wavelength 666 nm after acidification,  665 nm was used for ethanol extractions",numeric,-0.003,0.538
Chl_mg/m2,NA,milligramsPerSquareMeter,real,NA,Concentration of chlorophyll a,numeric,-11.485359,875.950083
Pheo_mg/m2,NA,milligramsPerSquareMeter,real,NA,Concentration of pheophytin a,numeric,-161.713862,411.635284
Flags,NA,NA,NA,NA,notes or problems encountered,factor,NA,NA
